﻿{
  "Serilog": {
    "Using": ["Serilog.Sinks.Console", "Serilog.Sinks.Elasticsearch"],
    "MinimumLevel": {
      "Default": "Information",
      "Override": {
        "Microsoft": "Warning",
        "System": "Warning"
      }
    },
    "WriteTo": [
      {
        "Name": "Elasticsearch",
        "Args": {
          "nodeUris": "http://localhost:9200",
          "autoRegisterTemplate": true,
          "autoRegisterTemplateVersion": "ESv7",
          "overwriteTemplate": false,
          "indexFormat": "content-server-{0:yyyy.MM}",
          "formatStackTraceAsArray": true
        }
      },
      {
        "Name": "Console",
        "Args": {
          "outputTemplate": "[{Timestamp:HH:mm:ss} {Level:u3}] {Message:lj} ({Scope}){NewLine}{Exception}"
        }
      }
    ]
  }
}
